{
 "custom_fields": [], 
 "custom_perms": [], 
 "doctype": "Authorization Rule", 
 "property_setters": [
  {
   "_assign": null, 
   "_comments": null, 
   "_liked_by": null, 
   "_user_tags": null, 
   "creation": "2018-09-07 10:40:23.846985", 
   "default_value": null, 
   "doc_type": "Authorization Rule", 
   "docstatus": 0, 
   "doctype_or_field": "DocField", 
   "field_name": "based_on", 
   "idx": 0, 
   "modified": "2018-09-07 10:40:23.846985", 
   "modified_by": "Administrator", 
   "name": "Authorization Rule-based_on-options", 
   "owner": "Administrator", 
   "parent": null, 
   "parentfield": null, 
   "parenttype": null, 
   "property": "options", 
   "property_type": "Text", 
   "value": "\nGrand Total\nAverage Discount\nCustomerwise Discount\nItemwise Discount\nClaim Amount\nNot Applicable"
  }, 
  {
   "_assign": null, 
   "_comments": null, 
   "_liked_by": null, 
   "_user_tags": null, 
   "creation": "2018-09-07 10:40:23.843118", 
   "default_value": null, 
   "doc_type": "Authorization Rule", 
   "docstatus": 0, 
   "doctype_or_field": "DocField", 
   "field_name": "transaction", 
   "idx": 0, 
   "modified": "2018-09-07 10:40:23.843118", 
   "modified_by": "Administrator", 
   "name": "Authorization Rule-transaction-options", 
   "owner": "Administrator", 
   "parent": null, 
   "parentfield": null, 
   "parenttype": null, 
   "property": "options", 
   "property_type": "Text", 
   "value": "\nSales Order\nPurchase Order\nQuotation\nDelivery Note\nSales Invoice\nPurchase Invoice\nPurchase Receipt\nAppraisal\nExpense Claim"
  }, 
  {
   "_assign": null, 
   "_comments": null, 
   "_liked_by": null, 
   "_user_tags": null, 
   "creation": "2018-09-07 10:40:23.802691", 
   "default_value": null, 
   "doc_type": "Authorization Rule", 
   "docstatus": 0, 
   "doctype_or_field": "DocType", 
   "field_name": null, 
   "idx": 0, 
   "modified": "2018-09-07 10:40:23.802691", 
   "modified_by": "Administrator", 
   "name": "Authorization Rule-read_only_onload", 
   "owner": "Administrator", 
   "parent": null, 
   "parentfield": null, 
   "parenttype": null, 
   "property": "read_only_onload", 
   "property_type": "Check", 
   "value": null
  }
 ], 
 "sync_on_migrate": 1
}